{
  "$schema": "http://json-schema.org/draft-07/schema#",
  "$comment": "All the below schema ensure that is a known key is defined, the correct type is used. Required properties are only enforced when we are sure that we have a KPlugin object",
  "if": {
    "type": "object"
  },
  "then": {
    "allOf": [
      {
        "$ref": "kpluginmetadata.schema.json"
      },
      {
        "$ref": "extrakeys.schema.json"
      },
      {
        "$ref": "extrakeys.applets.schema.json"
      }
    ]
  }
}
